Apr 09 14:16:56.625 HYPERVISOR: Release 0.2.21-amd64/Linux (tag 2019071212)
Apr 09 14:16:56.625 HYPERVISOR: Started on IP = 192.168.56.1, TCP port = 44665.
Apr 09 14:16:56.635 HYPERVISOR: exec_cmd: hypervisor version 
Apr 09 14:16:56.635 HYPERVISOR: exec_cmd: hypervisor working_dir /home/vivien/Ynov/ydays_reseaux/ydays_eigrp/proto-eigrp/project-files/dynamips 
Apr 09 14:16:56.635 GENERAL: working_dir=/home/vivien/Ynov/ydays_reseaux/ydays_eigrp/proto-eigrp/project-files/dynamips
Apr 09 14:16:56.636 HYPERVISOR: exec_cmd: hypervisor working_dir /home/vivien/Ynov/ydays_reseaux/ydays_eigrp/proto-eigrp/project-files/dynamips/86c5c68b-9ce9-4e48-8674-750521074cc1 
Apr 09 14:16:56.636 GENERAL: working_dir=/home/vivien/Ynov/ydays_reseaux/ydays_eigrp/proto-eigrp/project-files/dynamips/86c5c68b-9ce9-4e48-8674-750521074cc1
Apr 09 14:16:56.636 HYPERVISOR: exec_cmd: vm create E 1 c3600 
Apr 09 14:16:56.636 VM: VM E created.
Apr 09 14:16:56.637 HYPERVISOR: exec_cmd: vm set_con_tcp_port E 5000 
Apr 09 14:16:56.637 HYPERVISOR: exec_cmd: c3600 get_mac_addr E 
Apr 09 14:16:56.637 HYPERVISOR: exec_cmd: vm get_status E 
Apr 09 14:16:56.638 HYPERVISOR: exec_cmd: vm set_idle_pc E 0x6050b114 
Apr 09 14:16:56.638 HYPERVISOR: exec_cmd: vm set_ios E /home/vivien/GNS3/images/IOS/c3640-a3js-mz.124-25d.image 
Apr 09 14:16:56.639 HYPERVISOR: exec_cmd: c3600 set_mac_addr E cc01.16aa.0000 
Apr 09 14:16:56.639 HYPERVISOR: exec_cmd: vm set_nvram E 256 
Apr 09 14:16:56.639 HYPERVISOR: exec_cmd: vm set_ram E 192 
Apr 09 14:16:56.640 HYPERVISOR: exec_cmd: vm get_status E 
Apr 09 14:16:56.640 HYPERVISOR: exec_cmd: vm slot_add_binding E 0 0 NM-1FE-TX 
Apr 09 14:16:56.640 HYPERVISOR: exec_cmd: vm get_status E 
Apr 09 14:16:56.641 HYPERVISOR: exec_cmd: vm slot_add_binding E 1 0 NM-1FE-TX 
Apr 09 14:16:56.641 HYPERVISOR: exec_cmd: vm get_status E 
Apr 09 14:16:56.641 HYPERVISOR: exec_cmd: vm slot_add_binding E 2 0 NM-1FE-TX 
Apr 09 14:16:56.642 HYPERVISOR: exec_cmd: vm get_status E 
Apr 09 14:16:56.642 HYPERVISOR: exec_cmd: vm slot_add_binding E 3 0 NM-1FE-TX 
Apr 09 14:16:57.112 HYPERVISOR: exec_cmd: nio create_udp udp-18914d56-65ab-4c32-9d97-feeafa11fb24 10004 127.0.0.1 10005 
Apr 09 14:16:57.330 HYPERVISOR: exec_cmd: vm slot_add_nio_binding E 0 0 udp-18914d56-65ab-4c32-9d97-feeafa11fb24 
Apr 09 14:16:57.330 HYPERVISOR: exec_cmd: vm get_status E 
Apr 09 14:20:24.118 HYPERVISOR: exec_cmd: vm set_ghost_status E 2 
Apr 09 14:20:24.119 HYPERVISOR: exec_cmd: vm set_ghost_file E /home/vivien/Ynov/ydays_reseaux/ydays_eigrp/proto-eigrp/project-files/dynamips/c3640-a3js-mz.124-25d.image-192.ghost 
Apr 09 14:20:24.120 HYPERVISOR: exec_cmd: vm get_status E 
Apr 09 14:20:24.120 HYPERVISOR: exec_cmd: vm set_config E configs/i1_startup-config.cfg 
Apr 09 14:20:24.121 HYPERVISOR: exec_cmd: vm start E 
Apr 09 14:20:54.333 HYPERVISOR: exec_cmd: vm extract_config E 
